Number of degrees of freedom: 6203
Solving linear variational problem.
Thu Mar  1 21:38:38 GMT 2012

------------------------------------------------------------
t = 3e-05
dt = 3e-05
------------------------------------------------------------
Solving linear variational problem.
Solving linear variational problem.
Thu Mar  1 21:39:02 GMT 2012

------------------------------------------------------------
t = 6e-05
dt = 3e-05
------------------------------------------------------------
Solving linear variational problem.
Solving linear variational problem.
Thu Mar  1 21:39:25 GMT 2012

------------------------------------------------------------
t = 9e-05
dt = 3e-05
------------------------------------------------------------
Solving linear variational problem.
Solving linear variational problem.
Thu Mar  1 21:39:48 GMT 2012

------------------------------------------------------------
t = 0.00012
dt = 3e-05
------------------------------------------------------------
Solving linear variational problem.
Solving linear variational problem.
Thu Mar  1 21:40:11 GMT 2012

------------------------------------------------------------
t = 0.00015
dt = 3e-05
------------------------------------------------------------
Solving linear variational problem.
Solving linear variational problem.
Thu Mar  1 21:40:34 GMT 2012

------------------------------------------------------------
t = 0.00018
dt = 3e-05
------------------------------------------------------------
Solving linear variational problem.
Solving linear variational problem.
Thu Mar  1 21:40:57 GMT 2012

------------------------------------------------------------
t = 0.00021
dt = 3e-05
------------------------------------------------------------
Solving linear variational problem.
Solving linear variational problem.
Thu Mar  1 21:41:20 GMT 2012

------------------------------------------------------------
t = 0.00024
dt = 3e-05
------------------------------------------------------------
Solving linear variational problem.
Solving linear variational problem.
Thu Mar  1 21:41:44 GMT 2012

------------------------------------------------------------
t = 0.00027
dt = 3e-05
------------------------------------------------------------
Solving linear variational problem.
Solving linear variational problem.
Thu Mar  1 21:42:07 GMT 2012

------------------------------------------------------------
t = 0.0003
dt = 3e-05
------------------------------------------------------------
Solving linear variational problem.
Solving linear variational problem.
233.68user 0.38system 3:56.12elapsed 99%CPU (0avgtext+0avgdata 478704maxresident)k
0inputs+16outputs (1major+115588minor)pagefaults 0swaps
Number of degrees of freedom: 6203
Solving linear variational problem.
Thu Mar  1 21:42:34 GMT 2012

------------------------------------------------------------
t = 3e-05
dt = 3e-05
------------------------------------------------------------
Solving linear variational problem.
Solving linear variational problem.
Thu Mar  1 21:42:57 GMT 2012

------------------------------------------------------------
t = 6e-05
dt = 3e-05
------------------------------------------------------------
Solving linear variational problem.
Solving linear variational problem.
Thu Mar  1 21:43:20 GMT 2012

------------------------------------------------------------
t = 9e-05
dt = 3e-05
------------------------------------------------------------
Solving linear variational problem.
Solving linear variational problem.
Thu Mar  1 21:43:42 GMT 2012

------------------------------------------------------------
t = 0.00012
dt = 3e-05
------------------------------------------------------------
Solving linear variational problem.
Solving linear variational problem.
Thu Mar  1 21:44:05 GMT 2012

------------------------------------------------------------
t = 0.00015
dt = 3e-05
------------------------------------------------------------
Solving linear variational problem.
Solving linear variational problem.
Thu Mar  1 21:44:28 GMT 2012

------------------------------------------------------------
t = 0.00018
dt = 3e-05
------------------------------------------------------------
Solving linear variational problem.
Solving linear variational problem.
Thu Mar  1 21:44:50 GMT 2012

------------------------------------------------------------
t = 0.00021
dt = 3e-05
------------------------------------------------------------
Solving linear variational problem.
Solving linear variational problem.
Thu Mar  1 21:45:13 GMT 2012

------------------------------------------------------------
t = 0.00024
dt = 3e-05
------------------------------------------------------------
Solving linear variational problem.
Solving linear variational problem.
Thu Mar  1 21:45:35 GMT 2012

------------------------------------------------------------
t = 0.00027
dt = 3e-05
------------------------------------------------------------
Solving linear variational problem.
Solving linear variational problem.
Thu Mar  1 21:45:58 GMT 2012

------------------------------------------------------------
t = 0.0003
dt = 3e-05
------------------------------------------------------------
Solving linear variational problem.
Solving linear variational problem.
228.18user 0.49system 3:50.70elapsed 99%CPU (0avgtext+0avgdata 478832maxresident)k
0inputs+16outputs (1major+115560minor)pagefaults 0swaps
Number of degrees of freedom: 6203
Solving linear variational problem.
Thu Mar  1 21:46:24 GMT 2012

------------------------------------------------------------
t = 3e-05
dt = 3e-05
------------------------------------------------------------
Solving linear variational problem.
Solving linear variational problem.
Thu Mar  1 21:46:48 GMT 2012

------------------------------------------------------------
t = 6e-05
dt = 3e-05
------------------------------------------------------------
Solving linear variational problem.
Solving linear variational problem.
Thu Mar  1 21:47:11 GMT 2012

------------------------------------------------------------
t = 9e-05
dt = 3e-05
------------------------------------------------------------
Solving linear variational problem.
Solving linear variational problem.
Thu Mar  1 21:47:34 GMT 2012

------------------------------------------------------------
t = 0.00012
dt = 3e-05
------------------------------------------------------------
Solving linear variational problem.
Solving linear variational problem.
Thu Mar  1 21:47:57 GMT 2012

------------------------------------------------------------
t = 0.00015
dt = 3e-05
------------------------------------------------------------
Solving linear variational problem.
Solving linear variational problem.
Thu Mar  1 21:48:20 GMT 2012

------------------------------------------------------------
t = 0.00018
dt = 3e-05
------------------------------------------------------------
Solving linear variational problem.
Solving linear variational problem.
Thu Mar  1 21:48:43 GMT 2012

------------------------------------------------------------
t = 0.00021
dt = 3e-05
------------------------------------------------------------
Solving linear variational problem.
Solving linear variational problem.
Thu Mar  1 21:49:06 GMT 2012

------------------------------------------------------------
t = 0.00024
dt = 3e-05
------------------------------------------------------------
Solving linear variational problem.
Solving linear variational problem.
Thu Mar  1 21:49:29 GMT 2012

------------------------------------------------------------
t = 0.00027
dt = 3e-05
------------------------------------------------------------
Solving linear variational problem.
Solving linear variational problem.
Thu Mar  1 21:49:52 GMT 2012

------------------------------------------------------------
t = 0.0003
dt = 3e-05
------------------------------------------------------------
Solving linear variational problem.
Solving linear variational problem.
232.19user 0.41system 3:54.65elapsed 99%CPU (0avgtext+0avgdata 478288maxresident)k
0inputs+16outputs (1major+115644minor)pagefaults 0swaps
Number of degrees of freedom: 6203
Solving linear variational problem.
Thu Mar  1 21:50:19 GMT 2012

------------------------------------------------------------
t = 3e-05
dt = 3e-05
------------------------------------------------------------
Solving linear variational problem.
Solving linear variational problem.
Thu Mar  1 21:50:43 GMT 2012

------------------------------------------------------------
t = 6e-05
dt = 3e-05
------------------------------------------------------------
Solving linear variational problem.
Solving linear variational problem.
Thu Mar  1 21:51:05 GMT 2012

------------------------------------------------------------
t = 9e-05
dt = 3e-05
------------------------------------------------------------
Solving linear variational problem.
Solving linear variational problem.
Thu Mar  1 21:51:28 GMT 2012

------------------------------------------------------------
t = 0.00012
dt = 3e-05
------------------------------------------------------------
Solving linear variational problem.
Solving linear variational problem.
Thu Mar  1 21:51:51 GMT 2012

------------------------------------------------------------
t = 0.00015
dt = 3e-05
------------------------------------------------------------
Solving linear variational problem.
Solving linear variational problem.
Thu Mar  1 21:52:14 GMT 2012

------------------------------------------------------------
t = 0.00018
dt = 3e-05
------------------------------------------------------------
Solving linear variational problem.
Solving linear variational problem.
Thu Mar  1 21:52:36 GMT 2012

------------------------------------------------------------
t = 0.00021
dt = 3e-05
------------------------------------------------------------
Solving linear variational problem.
Solving linear variational problem.
Thu Mar  1 21:52:59 GMT 2012

------------------------------------------------------------
t = 0.00024
dt = 3e-05
------------------------------------------------------------
Solving linear variational problem.
Solving linear variational problem.
Thu Mar  1 21:53:22 GMT 2012

------------------------------------------------------------
t = 0.00027
dt = 3e-05
------------------------------------------------------------
Solving linear variational problem.
Solving linear variational problem.
Thu Mar  1 21:53:44 GMT 2012

------------------------------------------------------------
t = 0.0003
dt = 3e-05
------------------------------------------------------------
Solving linear variational problem.
Solving linear variational problem.
229.64user 0.32system 3:52.02elapsed 99%CPU (0avgtext+0avgdata 478848maxresident)k
0inputs+16outputs (1major+115616minor)pagefaults 0swaps
Number of degrees of freedom: 6203
Solving linear variational problem.
Thu Mar  1 21:54:11 GMT 2012

------------------------------------------------------------
t = 3e-05
dt = 3e-05
------------------------------------------------------------
Solving linear variational problem.
Solving linear variational problem.
Thu Mar  1 21:54:35 GMT 2012

------------------------------------------------------------
t = 6e-05
dt = 3e-05
------------------------------------------------------------
Solving linear variational problem.
Solving linear variational problem.
Thu Mar  1 21:54:58 GMT 2012

------------------------------------------------------------
t = 9e-05
dt = 3e-05
------------------------------------------------------------
Solving linear variational problem.
Solving linear variational problem.
Thu Mar  1 21:55:20 GMT 2012

------------------------------------------------------------
t = 0.00012
dt = 3e-05
------------------------------------------------------------
Solving linear variational problem.
Solving linear variational problem.
Thu Mar  1 21:55:43 GMT 2012

------------------------------------------------------------
t = 0.00015
dt = 3e-05
------------------------------------------------------------
Solving linear variational problem.
Solving linear variational problem.
Thu Mar  1 21:56:06 GMT 2012

------------------------------------------------------------
t = 0.00018
dt = 3e-05
------------------------------------------------------------
Solving linear variational problem.
Solving linear variational problem.
Thu Mar  1 21:56:29 GMT 2012

------------------------------------------------------------
t = 0.00021
dt = 3e-05
------------------------------------------------------------
Solving linear variational problem.
Solving linear variational problem.
Thu Mar  1 21:56:52 GMT 2012

------------------------------------------------------------
t = 0.00024
dt = 3e-05
------------------------------------------------------------
Solving linear variational problem.
Solving linear variational problem.
Thu Mar  1 21:57:15 GMT 2012

------------------------------------------------------------
t = 0.00027
dt = 3e-05
------------------------------------------------------------
Solving linear variational problem.
Solving linear variational problem.
Thu Mar  1 21:57:37 GMT 2012

------------------------------------------------------------
t = 0.0003
dt = 3e-05
------------------------------------------------------------
Solving linear variational problem.
Solving linear variational problem.
230.64user 0.35system 3:53.13elapsed 99%CPU (0avgtext+0avgdata 478848maxresident)k
0inputs+16outputs (1major+115465minor)pagefaults 0swaps
